{
    "cordova-plugin-connectsdk": {
        "source": {
            "type": "registry",
            "id": "cordova-plugin-connectsdk"
        },
        "is_top_level": true,
        "variables": {}
    },
    "cordova-plugin-whitelist": {
        "source": {
            "type": "registry",
            "id": "cordova-plugin-whitelist@1"
        },
        "is_top_level": true,
        "variables": {}
    }
}